{
  "images" : [
    {
      "size" : "24x24",
      "idiom" : "watch",
      "filename" : "48x48.png",
      "scale" : "2x",
      "role" : "notificationCenter",
      "subtype" : "38mm"
    },
    {
      "size" : "27.5x27.5",
      "idiom" : "watch",
      "filename" : "55x55.png",
      "scale" : "2x",
      "role" : "notificationCenter",
      "subtype" : "42mm"
    },
    {
      "size" : "29x29",
      "idiom" : "watch",
      "filename" : "29x29@2x.png",
      "role" : "companionSettings",
      "scale" : "2x"
    },
    {
      "size" : "29x29",
      "idiom" : "watch",
      "filename" : "29x29@3x.png",
      "role" : "companionSettings",
      "scale" : "3x"
    },
    {
      "size" : "40x40",
      "idiom" : "watch",
      "filename" : "80x80.png",
      "scale" : "2x",
      "role" : "appLauncher",
      "subtype" : "38mm"
    },
    {
      "size" : "44x44",
      "idiom" : "watch",
      "scale" : "2x",
      "role" : "appLauncher",
      "subtype" : "40mm"
    },
    {
      "size" : "50x50",
      "idiom" : "watch",
      "scale" : "2x",
      "role" : "appLauncher",
      "subtype" : "44mm"
    },
    {
      "size" : "86x86",
      "idiom" : "watch",
      "filename" : "172x172.png",
      "scale" : "2x",
      "role" : "quickLook",
      "subtype" : "38mm"
    },
    {
      "size" : "98x98",
      "idiom" : "watch",
      "filename" : "196x196.png",
      "scale" : "2x",
      "role" : "quickLook",
      "subtype" : "42mm"
    },
    {
      "size" : "108x108",
      "idiom" : "watch",
      "scale" : "2x",
      "role" : "quickLook",
      "subtype" : "44mm"
    },
    {
      "idiom" : "watch-marketing",
      "size" : "1024x1024",
      "scale" : "1x"
    }
  ],
  "info" : {
    "version" : 1,
    "author" : "xcode"
  }
}