{
  "images" : [
    {
      "idiom" : "watch",
      "filename" : "sunny_38.png",
      "screen-width" : "<=145",
      "scale" : "2x"
    },
    {
      "idiom" : "watch",
      "filename" : "sunny_38-1.png",
      "screen-width" : ">161",
      "scale" : "2x"
    },
    {
      "idiom" : "watch",
      "filename" : "sunny_42.png",
      "screen-width" : ">145",
      "scale" : "2x"
    },
    {
      "idiom" : "watch",
      "filename" : "sunny_42-1.png",
      "screen-width" : ">183",
      "scale" : "2x"
    }
  ],
  "info" : {
    "version" : 1,
    "author" : "xcode"
  }
}